{
  "count": 1573,
  "next": "https://whydonate-production-api.appspot.com/api/v1/donation/orders/fundraising/local/?client=whydonate_production&cursor=&id=15566&limit=1000&page=2",
  "previous": null,
  "results": [
    {
      "id": 265200,
      "created_at": "2021-02-23T14:40:20.967780",
      "description": "Steun Reptielenhuis de Aarde in Breda!",
      "amount": "100.00",
      "donor": {
        "id": 268446,
        "full_name": "Mike",
        "last_name": "",
        "message": "",
        "reply_message": "",
        "bank_account": ""
      },
      "is_anonymous": false,
      "status": "paid",
      "periodic": null,
      "donated_at": 1614091220,
      "number": "WDO-0265200",
      "fundraising_local_title": "Steun Reptielenhuis de Aarde in Breda!"
    },
    {
      "id": 265192,
      "created_at": "2021-02-23T13:40:05.707647",
      "description": "Steun Reptielenhuis de Aarde in Breda!",
      "amount": "55.00",
      "donor": {
        "id": 268438,
        "full_name": "Caro",
        "last_name": "",
        "message": "",
        "reply_message": "",
        "bank_account": ""
      },
      "is_anonymous": false,
      "status": "paid",
      "periodic": null,
      "donated_at": 1614087605,
      "number": "WDO-0265192",
      "fundraising_local_title": "Steun Reptielenhuis de Aarde in Breda!"
    },
    {
      "id": 265175,
      "created_at": "2021-02-23T11:39:25.562650",
      "description": "Steun Reptielenhuis de Aarde in Breda!",
      "amount": "10.00",
      "donor": {
        "id": 268421,
        "full_name": "Melvin",
        "last_name": "",
        "message": "Goed luck gr melvin de dakdekker ",
        "reply_message": "",
        "bank_account": ""
      },
      "is_anonymous": false,
      "status": "paid",
      "periodic": null,
      "donated_at": 1614080365,
      "number": "WDO-0265175",
      "fundraising_local_title": "Steun Reptielenhuis de Aarde in Breda!"
    },
    {
      "id": 265152,
      "created_at": "2021-02-23T09:40:09.262758",
      "description": "Steun Reptielenhuis de Aarde in Breda!",
      "amount": "50.00",
      "donor": {
        "id": 268398,
        "full_name": "Lia en Rob",
        "last_name": "",
        "message": "Succes",
        "reply_message": "",
        "bank_account": ""
      },
      "is_anonymous": false,
      "status": "paid",
      "periodic": null,
      "donated_at": 1614073209,
      "number": "WDO-0265152",
      "fundraising_local_title": "Steun Reptielenhuis de Aarde in Breda!"
    },
    {
      "id": 265149,
      "created_at": "2021-02-23T09:32:14.964702",
      "description": "Steun Reptielenhuis de Aarde in Breda!",
      "amount": "25.00",
      "donor": {
        "id": 268395,
        "full_name": "Anonymous",
        "last_name": "",
        "message": "",
        "reply_message": "",
        "bank_account": ""
      },
      "is_anonymous": false,
      "status": "paid",
      "periodic": null,
      "donated_at": 1614072734,
      "number": "WDO-0265149",
      "fundraising_local_title": "Steun Reptielenhuis de Aarde in Breda!"
    },
    {
      "id": 265140,
      "created_at": "2021-02-23T09:10:02.140099",
      "description": "Steun Reptielenhuis de Aarde in Breda!",
      "amount": "5.00",
      "donor": {
        "id": 268386,
        "full_name": "Anonymous",
        "last_name": "",
        "message": "",
        "reply_message": "",
        "bank_account": ""
      },
      "is_anonymous": false,
      "status": "paid",
      "periodic": null,
      "donated_at": 1614071402,
      "number": "WDO-0265140",
      "fundraising_local_title": "Steun Reptielenhuis de Aarde in Breda!"
    },
    {
      "id": 265137,
      "created_at": "2021-02-23T08:46:25.348786",
      "description": "Steun Reptielenhuis de Aarde in Breda!",
      "amount": "10.00",
      "donor": {
        "id": 268383,
        "full_name": "Rajna",
        "last_name": "",
        "message": "",
        "reply_message": "",
        "bank_account": ""
      },
      "is_anonymous": false,
      "status": "paid",
      "periodic": null,
      "donated_at": 1614069985,
      "number": "WDO-0265137",
      "fundraising_local_title": "Steun Reptielenhuis de Aarde in Breda!"
    },
    {
      "id": 265134,
      "created_at": "2021-02-23T08:20:50.463653",
      "description": "Steun Reptielenhuis de Aarde in Breda!",
      "amount": "5.00",
      "donor": {
        "id": 268380,
        "full_name": "Lize en Bibi",
        "last_name": "",
        "message": "",
        "reply_message": "",
        "bank_account": ""
      },
      "is_anonymous": false,
      "status": "paid",
      "periodic": null,
      "donated_at": 1614068450,
      "number": "WDO-0265134",
      "fundraising_local_title": "Steun Reptielenhuis de Aarde in Breda!"
    },
    {
      "id": 265133,
      "created_at": "2021-02-23T08:12:31.189429",
      "description": "Steun Reptielenhuis de Aarde in Breda!",
      "amount": "40.00",
      "donor": {
        "id": 268379,
        "full_name": "Ilse",
        "last_name": "",
        "message": "Van Emy en Ilse, succes!",
        "reply_message": "",
        "bank_account": ""
      },
      "is_anonymous": false,
      "status": "paid",
      "periodic": null,
      "donated_at": 1614067951,
      "number": "WDO-0265133",
      "fundraising_local_title": "Steun Reptielenhuis de Aarde in Breda!"
    },
    {
      "id": 265130,
      "created_at": "2021-02-23T08:08:54.632241",
      "description": "Steun Reptielenhuis de Aarde in Breda!",
      "amount": "25.00",
      "donor": {
        "id": 268376,
        "full_name": "Anonymous",
        "last_name": "",
        "message": "",
        "reply_message": "",
        "bank_account": ""
      },
      "is_anonymous": false,
      "status": "paid",
      "periodic": null,
      "donated_at": 1614067734,
      "number": "WDO-0265130",
      "fundraising_local_title": "Steun Reptielenhuis de Aarde in Breda!"
    },
    {
      "id": 265123,
      "created_at": "2021-02-23T07:45:45.014222",
      "description": "Steun Reptielenhuis de Aarde in Breda!",
      "amount": "10.00",
      "donor": {
        "id": 268369,
        "full_name": "Jolanda",
        "last_name": "",
        "message": "",
        "reply_message": "",
        "bank_account": ""
      },
      "is_anonymous": false,
      "status": "paid",
      "periodic": null,
      "donated_at": 1614066345,
      "number": "WDO-0265123",
      "fundraising_local_title": "Steun Reptielenhuis de Aarde in Breda!"
    },
    {
      "id": 265115,
      "created_at": "2021-02-23T06:27:18.179034",
      "description": "Steun Reptielenhuis de Aarde in Breda!",
      "amount": "10.00",
      "donor": {
        "id": 268361,
        "full_name": "Natascha",
        "last_name": "",
        "message": "",
        "reply_message": "",
        "bank_account": ""
      },
      "is_anonymous": false,
      "status": "paid",
      "periodic": null,
      "donated_at": 1614061638,
      "number": "WDO-0265115",
      "fundraising_local_title": "Steun Reptielenhuis de Aarde in Breda!"
    },
    {
      "id": 265099,
      "created_at": "2021-02-22T23:49:46.861848",
      "description": "Steun Reptielenhuis de Aarde in Breda!",
      "amount": "50.00",
      "donor": {
        "id": 268344,
        "full_name": "Jan",
        "last_name": "",
        "message": "Dit is een donatie namens kunstenaarscollectief '3 silent artists'  https://www.bodydesign.online/\n\n",
        "reply_message": "",
        "bank_account": ""
      },
      "is_anonymous": false,
      "status": "paid",
      "periodic": null,
      "donated_at": 1614037786,
      "number": "WDO-0265099",
      "fundraising_local_title": "Steun Reptielenhuis de Aarde in Breda!"
    },
    {
      "id": 265083,
      "created_at": "2021-02-22T22:06:31.115624",
      "description": "Steun Reptielenhuis de Aarde in Breda!",
      "amount": "10.00",
      "donor": {
        "id": 268328,
        "full_name": "Etienne",
        "last_name": "",
        "message": "",
        "reply_message": "",
        "bank_account": ""
      },
      "is_anonymous": false,
      "status": "paid",
      "periodic": null,
      "donated_at": 1614031591,
      "number": "WDO-0265083",
      "fundraising_local_title": "Steun Reptielenhuis de Aarde in Breda!"
    },
    {
      "id": 265077,
      "created_at": "2021-02-22T21:50:05.766783",
      "description": "Steun Reptielenhuis de Aarde in Breda!",
      "amount": "10.00",
      "donor": {
        "id": 268322,
        "full_name": "Pleunie",
        "last_name": "",
        "message": "",
        "reply_message": "",
        "bank_account": ""
      },
      "is_anonymous": false,
      "status": "paid",
      "periodic": null,
      "donated_at": 1614030605,
      "number": "WDO-0265077",
      "fundraising_local_title": "Steun Reptielenhuis de Aarde in Breda!"
    },
    {
      "id": 265072,
      "created_at": "2021-02-22T21:32:41.270786",
      "description": "Steun Reptielenhuis de Aarde in Breda!",
      "amount": "10.00",
      "donor": {
        "id": 268317,
        "full_name": "Joke",
        "last_name": "",
        "message": "",
        "reply_message": "",
        "bank_account": ""
      },
      "is_anonymous": false,
      "status": "paid",
      "periodic": null,
      "donated_at": 1614029561,
      "number": "WDO-0265072",
      "fundraising_local_title": "Steun Reptielenhuis de Aarde in Breda!"
    },
    {
      "id": 265062,
      "created_at": "2021-02-22T20:57:05.014606",
      "description": "Steun Reptielenhuis de Aarde in Breda!",
      "amount": "25.00",
      "donor": {
        "id": 268307,
        "full_name": "Erwin",
        "last_name": "",
        "message": "Het Reptielenhuis is toch uniek in Breda en omgeving en wellicht in heel Nederland. Laten we er met z'n allen voor zorgen dat dit niet verloren gaat in deze moeilijke tijd!",
        "reply_message": "",
        "bank_account": ""
      },
      "is_anonymous": false,
      "status": "paid",
      "periodic": null,
      "donated_at": 1614027425,
      "number": "WDO-0265062",
      "fundraising_local_title": "Steun Reptielenhuis de Aarde in Breda!"
    },
    {
      "id": 265058,
      "created_at": "2021-02-22T20:47:20.561251",
      "description": "Steun Reptielenhuis de Aarde in Breda!",
      "amount": "10.00",
      "donor": {
        "message": "",
        "reply_message": ""
      },
      "is_anonymous": true,
      "status": "paid",
      "periodic": null,
      "donated_at": 1614026840,
      "number": "WDO-0265058",
      "fundraising_local_title": "Steun Reptielenhuis de Aarde in Breda!"
    },
    {
      "id": 265057,
      "created_at": "2021-02-22T20:42:31.294087",
      "description": "Steun Reptielenhuis de Aarde in Breda!",
      "amount": "5.00",
      "donor": {
        "message": "",
        "reply_message": ""
      },
      "is_anonymous": true,
      "status": "paid",
      "periodic": null,
      "donated_at": 1614026551,
      "number": "WDO-0265057",
      "fundraising_local_title": "Steun Reptielenhuis de Aarde in Breda!"
    },
    {
      "id": 265049,
      "created_at": "2021-02-22T20:23:39.453727",
      "description": "Steun Reptielenhuis de Aarde in Breda!",
      "amount": "10.00",
      "donor": {
        "message": "",
        "reply_message": ""
      },
      "is_anonymous": true,
      "status": "paid",
      "periodic": null,
      "donated_at": 1614025419,
      "number": "WDO-0265049",
      "fundraising_local_title": "Steun Reptielenhuis de Aarde in Breda!"
    }
  ]
}